[
{
    "arguments": [
        "clang",
        "-Wno-documentation-unknown-command",
        "-Wno-unknown-warning-option",
        "-Wno-unknown-pragmas",
        "-nostdinc",
        "-nostdinc++",
        "-g",
        "-std=gnu++1z",
        "-Wall",
        "-Wextra",
        "-Wextra",
        "-fexceptions",
        "-mthreads",
        "-fsyntax-only",
        "-m64",
        "--target=x86_64-w64-mingw32",
        "-DUNICODE",
        "-D_UNICODE",
        "-DWIN32",
        "-DMINGW_HAS_SECURE_API",
        "-DQT_QML_DEBUG",
        "-DQT_CORE_LIB",
        "-DQ_CREATOR_RUN",
        "-I",
        "C:\\Qt\\Tools\\QtCreator\\share\\qtcreator\\cplusplus\\wrappedMingwHeaders",
        "-I",
        "C:\\Qt\\Tools\\QtCreator\\share\\qtcreator\\cplusplus\\wrappedQtHeaders",
        "-I",
        "C:\\Qt\\Tools\\QtCreator\\share\\qtcreator\\cplusplus\\wrappedQtHeaders\\QtCore",
        "-I",
        "\\\\wsl$\\Ubuntu-22.04\\home\\lucase\\Documents\\github\\noroff-qt-console\\Calculator",
        "-I",
        "C:\\Qt\\6.3.1\\mingw_64\\include",
        "-I",
        "C:\\Qt\\6.3.1\\mingw_64\\include\\QtCore",
        "-I",
        "C:\\Users\\LFlori\\Documents\\qt\\build-Calculator-Desktop_Qt_6_3_1_MinGW_64_bit-Debug\\debug",
        "-I",
        "C:\\Users\\LFlori\\Documents\\qt\\build-Calculator-Desktop_Qt_6_3_1_MinGW_64_bit-Debug",
        "-I",
        "C:\\Qt\\6.3.1\\mingw_64\\mkspecs\\win32-g++",
        "-isystem",
        "C:\\Qt\\Tools\\mingw1120_64\\lib\\gcc\\x86_64-w64-mingw32\\11.2.0\\include\\c++",
        "-isystem",
        "C:\\Qt\\Tools\\mingw1120_64\\lib\\gcc\\x86_64-w64-mingw32\\11.2.0\\include\\c++\\x86_64-w64-mingw32",
        "-isystem",
        "C:\\Qt\\Tools\\mingw1120_64\\lib\\gcc\\x86_64-w64-mingw32\\11.2.0\\include\\c++\\backward",
        "-isystem",
        "C:\\Qt\\Tools\\QtCreator\\bin\\clang\\lib\\clang\\14.0.3\\include",
        "-isystem",
        "C:\\Qt\\Tools\\mingw1120_64\\x86_64-w64-mingw32\\include",
        "-fmessage-length=0",
        "-fdiagnostics-show-note-include-stack",
        "-fretain-comments-from-system-headers",
        "-fmacro-backtrace-limit=0",
        "-ferror-limit=1000",
        "-x",
        "c++",
        "\\\\wsl$\\Ubuntu-22.04\\home\\lucase\\Documents\\github\\noroff-qt-console\\Calculator\\calculate.cpp"
    ],
    "directory": "C:/Users/LFlori/Documents/qt/build-Calculator-Desktop_Qt_6_3_1_MinGW_64_bit-Debug/.qtc_clangd",
    "file": "//wsl$/Ubuntu-22.04/home/lucase/Documents/github/noroff-qt-console/Calculator/calculate.cpp"
},
{
    "arguments": [
        "clang",
        "-Wno-documentation-unknown-command",
        "-Wno-unknown-warning-option",
        "-Wno-unknown-pragmas",
        "-nostdinc",
        "-nostdinc++",
        "-g",
        "-std=gnu++1z",
        "-Wall",
        "-Wextra",
        "-Wextra",
        "-fexceptions",
        "-mthreads",
        "-fsyntax-only",
        "-m64",
        "--target=x86_64-w64-mingw32",
        "-DUNICODE",
        "-D_UNICODE",
        "-DWIN32",
        "-DMINGW_HAS_SECURE_API",
        "-DQT_QML_DEBUG",
        "-DQT_CORE_LIB",
        "-DQ_CREATOR_RUN",
        "-I",
        "C:\\Qt\\Tools\\QtCreator\\share\\qtcreator\\cplusplus\\wrappedMingwHeaders",
        "-I",
        "C:\\Qt\\Tools\\QtCreator\\share\\qtcreator\\cplusplus\\wrappedQtHeaders",
        "-I",
        "C:\\Qt\\Tools\\QtCreator\\share\\qtcreator\\cplusplus\\wrappedQtHeaders\\QtCore",
        "-I",
        "\\\\wsl$\\Ubuntu-22.04\\home\\lucase\\Documents\\github\\noroff-qt-console\\Calculator",
        "-I",
        "C:\\Qt\\6.3.1\\mingw_64\\include",
        "-I",
        "C:\\Qt\\6.3.1\\mingw_64\\include\\QtCore",
        "-I",
        "C:\\Users\\LFlori\\Documents\\qt\\build-Calculator-Desktop_Qt_6_3_1_MinGW_64_bit-Debug\\debug",
        "-I",
        "C:\\Users\\LFlori\\Documents\\qt\\build-Calculator-Desktop_Qt_6_3_1_MinGW_64_bit-Debug",
        "-I",
        "C:\\Qt\\6.3.1\\mingw_64\\mkspecs\\win32-g++",
        "-isystem",
        "C:\\Qt\\Tools\\mingw1120_64\\lib\\gcc\\x86_64-w64-mingw32\\11.2.0\\include\\c++",
        "-isystem",
        "C:\\Qt\\Tools\\mingw1120_64\\lib\\gcc\\x86_64-w64-mingw32\\11.2.0\\include\\c++\\x86_64-w64-mingw32",
        "-isystem",
        "C:\\Qt\\Tools\\mingw1120_64\\lib\\gcc\\x86_64-w64-mingw32\\11.2.0\\include\\c++\\backward",
        "-isystem",
        "C:\\Qt\\Tools\\QtCreator\\bin\\clang\\lib\\clang\\14.0.3\\include",
        "-isystem",
        "C:\\Qt\\Tools\\mingw1120_64\\x86_64-w64-mingw32\\include",
        "-fmessage-length=0",
        "-fdiagnostics-show-note-include-stack",
        "-fretain-comments-from-system-headers",
        "-fmacro-backtrace-limit=0",
        "-ferror-limit=1000",
        "-x",
        "c++",
        "\\\\wsl$\\Ubuntu-22.04\\home\\lucase\\Documents\\github\\noroff-qt-console\\Calculator\\main.cpp"
    ],
    "directory": "C:/Users/LFlori/Documents/qt/build-Calculator-Desktop_Qt_6_3_1_MinGW_64_bit-Debug/.qtc_clangd",
    "file": "//wsl$/Ubuntu-22.04/home/lucase/Documents/github/noroff-qt-console/Calculator/main.cpp"
}
]